…
✔ tibble  1.4.2     ✔ dplyr   0.7.6
✔ tidyr   0.8.1     ✔ stringr 1.3.1
✔ readr   1.1.1     ✔ forcats 0.3.0
── Conflicts ────────────────────────────────────────── tidyverse_conflicts() ──
✖ dplyr::filter() masks stats::filter()
✖ dplyr::lag()    masks stats::lag()
> set.seed(12345)
> unif_means_ten <- numeric(10) # space for big results (vector of Os)
> for (i in 1:10000){
+   x <- runif(10, min = 1, max = 6) # draw random sample with 10 observations each
+   unif_means_ten[i] <- mean(x) # compute mean for each ith sample
+ }
> my_sim <- unif_means_ten %>% tibble(sample_mean = .)
> my_sim
# A tibble: 10,000 x 1
   sample_mean
         <dbl>
 1        4.21
 2        2.85
 3        3.72
 4        3.46
 5        3.14
 6        3.52
 7        4.32
 8        3.42
 9        3.03
10        3.80
# ... with 9,990 more rows
…
