CM-Lab1-markdown
…
Dependent variable: criminals

Minimize: sum of the squared risiduals

Basic Regression: regression with one independent variable

\[\hat{criminals} = b_0 + b_1{pubs}\]

4: EDA

Raw Values:

crime

## # A tibble: 40 x 7
##    county region_name region_code criminals public_houses school_attendan
##    <chr>  <chr>             <int>     <int>         <int>            <int>
##  1 Middl South East           1       200           541              560
##  2 Surrey South East           1       160           504              630
##  3 Kent   South East           1       160           552              790
##  4 Sussex South East           1       147           295              820
##  5 Hants  South East           1       178           409              990
##  6 Berks  South East           1       205           568              930
##  7 Herts  South Midl           1       183           708             1020
##  8 Bucks  South Midl           1       156           624             1130
##  9 Oxford South Midl           1       173           463              950
## 10 North South Midl           1       132           408             1090
## # ... with 30 more rows, and 1 more variable: worship_attendance <int>
…
4.1 Look at the data

Get number of counties using distinct:

distinct(crime, county)

## # A tibble: 40 x 1
##    county     
##    <chr>      
##  1 Middlesex  
##  2 Surrey     
##  3 Kent       
##  4 Sussex     
##  5 Hants      
##  6 Berks      
##  7 Herts      
##  8 Bucks      
##  9 Oxford     
## 10 Northampton
## # ... with 30 more rows
…
Dependent: criminals

Independent: public_houses

4.2: Look at summary statistics

Select public_house and `criminals from dataset:

pub_crime <- select(crime, public_houses, criminals)

pub_crime

## # A tibble: 40 x 2
##    public_houses criminals
##            <int>     <int>
##  1           541       200
##  2           504       160
##  3           552       160
##  4           295       147
##  5           409       178
##  6           568       205
##  7           708       183
##  8           624       156
##  9           463       173
## 10           408       132
## # ... with 30 more rows
…
