iLab 2
…
With a value of -1.85, the coefficient implies that for every standard deviation taller than the average for their age they are, women will have 1.85 fewer nmol/L of the serum in their bodies.

sexM:zhfa

In the same way the ageyears:sexM allowed the slope of the male age line to differ from the female line, this one allows the the male zhfa line to differ from the females. The +0.23 coefficient is suspicious because this means that the correlation for males will be (-1.85 + 0.23) fewer nmol/L of serum per standard deviation in height. This implies that we have a less steep correlation for males than females on the zhfa, which is the appears to be the opposite of what we saw in the x25d/zhfa graph, where the male line seemed to be steeper. This degree of freedom may be resulting in over fitting.

Residual Analysis

Now lets examine how well our model actual fit the data.

regression_points <- get_regression_points(vit25d_model_interaction)
regression_points

## # A tibble: 529 x 7
##       ID  x25d ageyears sex     zhfa x25d_hat residual
##    <int> <dbl>    <dbl> <chr>  <dbl>    <dbl>    <dbl>
##  1     1  72.2     7.75 F     -0.580     74.0    -1.76
##  2     2  73.4     7.04 F     -0.12      75.3    -1.91
##  3     3  64.6     7.29 F     -0.98      76.1   -11.5 
##  4     4  73.6     7.25 F     -1.2       76.7    -3.06
##  5     5  88.5     6.85 M     -1.45      81.7     6.78
##  6     6  85.8     7.74 M     -0.77      80.5     5.30
##  7     7  75.2     8.78 F     -0.33      70.3     4.88
##  8     8  82.9     7.89 F     -0.36      73.1     9.77
##  9     9  70.2     7.62 F     -1.66      76.4    -6.18
## 10    10  84.9     8.76 M     -1.32      81.3     3.63
## # ... with 519 more rows
…
