iLab 4 - Assesment
…
glimpse(or_vitd)

## Observations: 533
## Variables: 6
## $ patient_type <fct> CASE, CASE, CASE, CASE, CASE, CASE, CASE, CASE, C...
## $ gender       <chr> "FEMALE", "FEMALE", "FEMALE", "FEMALE", "MALE", "...
## $ season       <fct> winter, winter, winter, winter, winter, winter, w...
## $ region       <fct> NW, NW, NW, NW, NW, NW, NW, NW, NW, NW, NW, NW, N...
## $ age          <int> 9, 9, 9, 9, 9, 9, 9, 9, 9, 9, 9, 9, 9, 9, 9, 10, ...
## $ vitamin_d    <dbl> 24, 23, 24, 28, 11, 19, 22, 24, 28, 30, 31, 37, 5...

or_vitd

## # A tibble: 533 x 6
##    patient_type gender season region   age vitamin_d
##    <fct>        <chr>  <fct>  <fct>  <int>     <dbl>
##  1 CASE         FEMALE winter NW         9        24
##  2 CASE         FEMALE winter NW         9        23
##  3 CASE         FEMALE winter NW         9        24
##  4 CASE         FEMALE winter NW         9        28
##  5 CASE         MALE   winter NW         9        11
##  6 CASE         MALE   winter NW         9        19
##  7 CASE         MALE   winter NW         9        22
##  8 CASE         MALE   winter NW         9        24
##  9 CASE         MALE   winter NW         9        28
## 10 CASE         MALE   winter NW         9        30
## # ... with 523 more rows
…
