CM Lab 2.2 markdown
…
\[\hat{criminals} = b_0 + b_1{pubs}\]

2: EDA

Raw Values:

crime

## # A tibble: 40 x 7
##    county region_name region_code criminals public_houses school_attendan
##    <chr>  <chr>             <int>     <int>         <int>            <int>
##  1 Middl South East           1       200           541              560
##  2 Surrey South East           1       160           504              630
##  3 Kent   South East           1       160           552              790
##  4 Sussex South East           1       147           295              820
##  5 Hants  South East           1       178           409              990
##  6 Berks  South East           1       205           568              930
##  7 Herts  South Midl           1       183           708             1020
##  8 Bucks  South Midl           1       156           624             1130
##  9 Oxford South Midl           1       173           463              950
## 10 North South Midl           1       132           408             1090
## # ... with 30 more rows, and 1 more variable: worship_attendance <int>
…
